{
   "name" : "lang-de-pf2e",
   "title" : "Translation: German [Pathfinder 2e]",
   "version" : "0.4.1",
   "minimumCoreVersion" : "0.5.3",
   "compatibleCoreVersion" : "0.5.999",
   "author" : "henry4k",
   "description" : "German language support for Pathfinder 2e",
   "languages" : [
      {
         "lang" : "de",
         "name" : "German",
         "path" : "de.json"
      }
   ],
   "packs" : [],
   "scripts" : [],
   "styles": ["style.css"],
   "url" : "https://gitlab.com/henry4k/foundryvtt-pathfinder2e-lang-de",
   "manifest" : "https://gitlab.com/henry4k/foundryvtt-pathfinder2e-lang-de/-/raw/master/module.json",
   "download" : "https://gitlab.com/henry4k/foundryvtt-pathfinder2e-lang-de/-/jobs/artifacts/v0.4.1/download?job=build"
}
